^C:\USERS\ZVONIMIR\SOURCE\REPOS\SNAKEGAME\SNAKEGAME\DEBUG\SOURCE.OBJ
/OUT:"C:\USERS\ZVONIMIR\SOURCE\REPOS\SNAKEGAME\DEBUG\SNAKEGAME.EXE" /INCREMENTAL /NOLOGO KERNEL32.LIB USER32.LIB GDI32.LIB WINSPOOL.LIB COMDLG32.LIB ADVAPI32.LIB SHELL32.LIB OLE32.LIB OLEAUT32.LIB UUID.LIB ODBC32.LIB ODBCCP32.LIB /MANIFEST /MANIFESTUAC:"level='asInvoker' uiAccess='false'" /manifest:embed /DEBUG:FASTLINK /PDB:"C:\USERS\ZVONIMIR\SOURCE\REPOS\SNAKEGAME\DEBUG\SNAKEGAME.PDB" /TLBID:1 /DYNAMICBASE /NXCOMPAT /IMPLIB:"C:\USERS\ZVONIMIR\SOURCE\REPOS\SNAKEGAME\DEBUG\SNAKEGAME.LIB" /MACHINE:X86 DEBUG\SOURCE.OBJ
^F:\VISUALSTUDIO_REPOS\SNAKEGAME\SNAKEGAME\DEBUG\SOURCE.OBJ
/OUT:"F:\VISUALSTUDIO_REPOS\SNAKEGAME\DEBUG\SNAKEGAME.EXE" /INCREMENTAL /NOLOGO KERNEL32.LIB USER32.LIB GDI32.LIB WINSPOOL.LIB COMDLG32.LIB ADVAPI32.LIB SHELL32.LIB OLE32.LIB OLEAUT32.LIB UUID.LIB ODBC32.LIB ODBCCP32.LIB /MANIFEST /MANIFESTUAC:"level='asInvoker' uiAccess='false'" /manifest:embed /DEBUG:FASTLINK /PDB:"F:\VISUALSTUDIO_REPOS\SNAKEGAME\DEBUG\SNAKEGAME.PDB" /TLBID:1 /DYNAMICBASE /NXCOMPAT /IMPLIB:"F:\VISUALSTUDIO_REPOS\SNAKEGAME\DEBUG\SNAKEGAME.LIB" /MACHINE:X86 DEBUG\SOURCE.OBJ
